[{
    "id": 7,
    "image": "http://media1.policymic.com/site/articles/34441/1_photo-140x88.jpg",
    "firstname": "Chris",
    "lastname": "Miles",
    "submitted": "2013-03-17 21:50:04",
    "tag": "Viral",
    "title": "North Koreans: Just \"H\\\"angry",
    "url": "http://www.policymic.com/articles/34441/war-with-north-korea-food-shortages-at-root-of-the-conflict",
    "words": 400
}, {
    "id": 8,
    "image": "http://media1.policymic.com/site/articles/34303/1_photo-140x88.jpg",
    "firstname": "Elizabeth",
    "lastname": "Plank",
    "submitted": "2013-02-18 21:50:04",
    "tag": "Bootcamp",
    "title": "6 Ways to Make Your Articles Go Viral",
    "url": "http://www.policymic.com/articles/34303/6-ways-to-make-your-articles-go-viral",
    "words": 501
}, {
    "id": 9,
    "image": "http://media1.policymic.com/site/articles/34423/1_photo-140x88.jpg",
    "firstname": "Michael",
    "lastname": "McCutchen",
    "submitted": "2013-03-16 21:50:04",
    "tag": "Viral",
    "title": "Uruguay Legalizes Same-Sex Marriage, Beats United States to the Punch",
    "url": "http://www.policymic.com/articles/34423/gay-marriage-2013-uruguay-legalizes-same-sex-marriage-beats-united-states-to-the-punch",
    "words": 502
}, {
    "id": 10,
    "image": "http://media1.policymic.com/site/articles/34101/1_photo-140x88.jpg",
    "firstname": "Michael",
    "lastname": "Luciano",
    "submitted": "2013-03-18 12:50:04",
    "tag": "Bootcamp",
    "title": "Why Christopher Knight Abandoned Society For 27 Years",
    "url": "http://www.policymic.com/articles/34101/maine-hermit-why-christopher-knight-abandoned-society-for-27-years",
    "words": 399
}, {
    "id": 11,
    "image": "http://media1.policymic.com/site/articles/33985/2_photo-140x88.jpg",
    "firstname": "Jake",
    "lastname": "Horowitz",
    "submitted": "2013-03-18 13:50:04",
    "tag": "Viral",
    "title": "Why is the U.S. More Violent Than Other Countries?",
    "url": "http://www.policymic.com/articles/33985/gun-control-debate-2013-why-is-the-u-s-more-violent-than-other-countries",
    "words": 401
}, {
    "id": 12,
    "image": "http://media1.policymic.com/site/articles/34333/1_photo-140x88.jpg",
    "firstname": "Chris",
    "lastname": "Altchek",
    "submitted": "2013-03-18 14:50:04",
    "tag": "Bootcamp",
    "title": "Gun Control Legislation Actually Has a Good Chance in the Senate",
    "url": "http://www.policymic.com/articles/34333/gun-control-vote-background-checks-legislation-actually-have-a-good-chance-in-the-senate",
    "words": 450
}]